Combi_elements/comp4.vcd
$date
	Wed Dec 03 17:59:15 2014
$end
$version
	Icarus Verilog
$end
$timescale
	1s
$end
$scope module stimulus $end
$var wire 1 ! e $end
$var wire 1 " g $end
$var wire 1 # l $end
$var reg 4 $ a [3:0] $end
$var reg 4 % b [3:0] $end
$var reg 1 & clk $end
$scope module tester $end
$var wire 4 ' a [3:0] $end
$var wire 4 ( b [3:0] $end
$var wire 1 ) clk $end
$var wire 1 * e1 $end
$var wire 1 + e2 $end
$var wire 1 , e3 $end
$var wire 1 - e4 $end
$var wire 1 . g1 $end
$var wire 1 / g2 $end
$var wire 1 0 g3 $end
$var wire 1 1 g4 $end
$var wire 1 2 l1 $end
$var wire 1 3 l2 $end
$var wire 1 4 l3 $end
$var wire 1 5 l4 $end
$var reg 1 6 e $end
$var reg 1 7 g $end
$var reg 1 8 l $end
$scope module t1 $end
$var wire 1 9 a $end
$var wire 1 : b $end
$var wire 1 ) clk $end
$var reg 1 ; e $end
$var reg 1 < g $end
$var reg 1 = l $end
$upscope $end
$scope module t2 $end
$var wire 1 > a $end
$var wire 1 ? b $end
$var wire 1 ) clk $end
$var reg 1 @ e $end
$var reg 1 A g $end
$var reg 1 B l $end
$upscope $end
$scope module t3 $end
$var wire 1 C a $end
$var wire 1 D b $end
$var wire 1 ) clk $end
$var reg 1 E e $end
$var reg 1 F g $end
$var reg 1 G l $end
$upscope $end
$scope module t4 $end
$var wire 1 H a $end
$var wire 1 I b $end
$var wire 1 ) clk $end
$var reg 1 J e $end
$var reg 1 K g $end
$var reg 1 L l $end
$upscope $end
$upscope $end
$upscope $end
$enddefinitions $end
#0
$dumpvars
xL
xK
xJ
0I
0H
xG
xF
xE
0D
0C
xB
xA
x@
0?
0>
x=
x<
x;
1:
09
08
07
16
x5
x4
x3
x2
x1
x0
x/
x.
x-
x,
x+
x*
0)
b1 (
b0 '
0&
b1 %
b0 $
0#
0"
1!
$end
#5
1=
12
0;
0*
0<
0.
0B
03
1@
1+
0A
0/
0G
04
1E
1,
0F
00
0L
05
1J
1-
0K
01
x6
x!
x8
x#
x7
x"
1?
1>
b11 %
b11 (
b10 $
b10 '
1&
1)
#10
0&
0)
#15
06
0!
18
1#
07
0"
1&
1)
#20
0&
0)
#25
0=
02
1<
1.
0@
0+
1A
1/
19
1C
0:
0?
1D
1&
1)
b111 $
b111 '
b100 %
b100 (
#30
0&
0)
#35
08
0#
17
1"
1&
1)
#40
0&
0)
#45
1&
1)
#50
0&
0)
#55
1&
1)
#60
0&
0)
#65
1=
12
0<
0.
1B
13
0A
0/
1G
14
0E
0,
1L
15
0J
0-
1:
1?
1I
09
0>
0C
1&
1)
b1111 %
b1111 (
b0 $
b0 '
#70
0&
0)
#75
18
1#
07
0"
1&
1)
#80
0&
0)
#85
1&
1)
#90
0&
0)
#95
1&
1)
#100
0&
0)
#105
1&
1)
#110
0&
0)
#115
1&
1)
#120
0&
0)
#125
0=
02
1;
1*
0B
03
1@
1+
0G
04
1E
1,
0L
05
1J
1-
0?
0D
0I
19
1&
1)
b1 %
b1 (
b1 $
b1 '
#130
0&
0)
#135
16
1!
08
0#
1&
1)
